<svg width="51" height="44" viewBox="0 0 51 44" fill="none" xmlns="http://www.w3.org/2000/svg">
<path d="M51 22.008L43.5929 19.0822C42.9614 16.1047 41.3829 14.3958 41.3829 14.3958C40.4379 13.3864 39.3155 12.5856 38.0799 12.0392C36.8443 11.4928 35.5198 11.2115 34.1821 11.2115C32.8445 11.2115 31.5199 11.4928 30.2843 12.0392C29.0488 12.5856 27.9264 13.3864 26.9814 14.3958L23.3871 18.2278L7.28571 0C4.85714 10.3567 7.28571 20.7134 13.2357 29.0506L0 42.7214C0 42.7214 21.59 47.8998 34.17 37.4136C40.8729 31.821 42.3786 28.5586 43.3257 25.115L51 22.008ZM38.1529 22.5776C37.2057 23.5874 35.6514 23.5874 34.7043 22.5776C34.4792 22.3381 34.3005 22.0536 34.1787 21.7404C34.0568 21.4271 33.9941 21.0914 33.9941 20.7523C33.9941 20.4132 34.0568 20.0774 34.1787 19.7642C34.3005 19.451 34.4792 19.1664 34.7043 18.9269C35.6514 17.9171 37.2057 17.9171 38.1529 18.9269C39.1 19.9367 39.1 21.5679 38.1529 22.5776Z" fill="#CA252B"/>
</svg>
