<svg width="64" height="63" viewBox="0 0 64 63" fill="none" xmlns="http://www.w3.org/2000/svg">
<path d="M32 0C36.1772 0 40.1832 1.65937 43.1369 4.61307C46.0906 7.56677 47.75 11.5728 47.75 15.75C47.75 19.9272 46.0906 23.9332 43.1369 26.8869C40.1832 29.8406 36.1772 31.5 32 31.5C27.8228 31.5 23.8168 29.8406 20.8631 26.8869C17.9094 23.9332 16.25 19.9272 16.25 15.75C16.25 11.5728 17.9094 7.56677 20.8631 4.61307C23.8168 1.65937 27.8228 0 32 0ZM32 39.375C49.4038 39.375 63.5 46.4231 63.5 55.125V63H0.5V55.125C0.5 46.4231 14.5962 39.375 32 39.375Z" fill="#CA252B"/>
</svg>
