<svg width="67" height="49" viewBox="0 0 67 49" fill="none" xmlns="http://www.w3.org/2000/svg">
<path d="M65.2025 23.0185C62.2418 9.67208 57.786 2.54863 51.1764 0.602829C49.787 0.196477 48.3458 -0.00653076 46.8979 0.000160141C44.9841 0.000160141 43.3174 0.465035 41.5543 0.957748C39.4298 1.55206 37.0162 2.22711 33.4971 2.22711C29.978 2.22711 27.5631 1.55346 25.4343 0.95914C23.6699 0.465036 22.0046 0.000160141 20.0964 0.000160141C18.5991 -0.00501625 17.1085 0.197346 15.6671 0.601436C9.09237 2.53888 4.6394 9.65955 1.6354 23.0101C-1.59475 37.3767 -0.00480238 46.4474 6.09394 48.5518C6.92993 48.8456 7.80953 48.9971 8.69593 49C12.8739 49 16.2241 45.5301 18.5134 42.6894C21.1 39.4742 24.1278 37.843 33.4971 37.843C41.8656 37.843 45.3289 38.9746 48.3203 42.6894C50.2006 45.0249 51.9776 46.6589 53.7504 47.6875C56.1081 49.0543 58.4644 49.3577 60.7523 48.5741C64.3566 47.3479 66.4225 44.1063 66.8944 38.937C67.2531 34.973 66.7003 29.7661 65.2025 23.0185ZM26.7967 22.2697H22.3298V26.7235C22.3298 27.3142 22.0945 27.8806 21.6757 28.2982C21.2568 28.7159 20.6887 28.9505 20.0964 28.9505C19.504 28.9505 18.9359 28.7159 18.5171 28.2982C18.0982 27.8806 17.8629 27.3142 17.8629 26.7235V22.2697H13.396C12.8036 22.2697 12.2355 22.035 11.8167 21.6174C11.3978 21.1998 11.1625 20.6333 11.1625 20.0427C11.1625 19.4521 11.3978 18.8856 11.8167 18.468C12.2355 18.0504 12.8036 17.8158 13.396 17.8158H17.8629V13.3619C17.8629 12.7712 18.0982 12.2048 18.5171 11.7872C18.9359 11.3695 19.504 11.1349 20.0964 11.1349C20.6887 11.1349 21.2568 11.3695 21.6757 11.7872C22.0945 12.2048 22.3298 12.7712 22.3298 13.3619V17.8158H26.7967C27.3891 17.8158 27.9572 18.0504 28.376 18.468C28.7949 18.8856 29.0302 19.4521 29.0302 20.0427C29.0302 20.6333 28.7949 21.1998 28.376 21.6174C27.9572 22.035 27.3891 22.2697 26.7967 22.2697ZM38.5224 22.8264C37.9702 22.8264 37.4305 22.6631 36.9714 22.3573C36.5122 22.0514 36.1544 21.6166 35.9431 21.108C35.7318 20.5993 35.6765 20.0396 35.7842 19.4996C35.892 18.9596 36.1578 18.4636 36.5483 18.0743C36.9387 17.685 37.4362 17.4199 37.9778 17.3125C38.5193 17.2051 39.0807 17.2602 39.5908 17.4709C40.1009 17.6816 40.537 18.0384 40.8437 18.4962C41.1505 18.9539 41.3142 19.4921 41.3142 20.0427C41.3142 20.781 41.0201 21.489 40.4965 22.0111C39.973 22.5331 39.2629 22.8264 38.5224 22.8264ZM44.6644 28.9505C44.112 28.9505 43.5719 28.7871 43.1127 28.4809C42.6534 28.1747 42.2956 27.7395 42.0845 27.2305C41.8734 26.7214 41.8185 26.1613 41.9268 25.6212C42.0351 25.081 42.3017 24.585 42.6928 24.196C43.0839 23.807 43.582 23.5424 44.1241 23.4358C44.6661 23.3291 45.2277 23.3853 45.7377 23.597C46.2477 23.8088 46.6832 24.1667 46.9892 24.6253C47.2951 25.084 47.4576 25.6229 47.4563 26.1738C47.4544 26.9108 47.1595 27.6171 46.6361 28.1376C46.1127 28.6582 45.4037 28.9505 44.6644 28.9505ZM44.6644 16.7023C44.1123 16.7023 43.5725 16.539 43.1134 16.2331C42.6543 15.9273 42.2964 15.4925 42.0851 14.9839C41.8738 14.4752 41.8185 13.9155 41.9263 13.3755C42.034 12.8355 42.2999 12.3395 42.6903 11.9502C43.0808 11.5609 43.5782 11.2958 44.1198 11.1884C44.6613 11.081 45.2227 11.1361 45.7328 11.3468C46.243 11.5575 46.679 11.9143 46.9858 12.3721C47.2925 12.8298 47.4563 13.368 47.4563 13.9186C47.4563 14.6569 47.1621 15.3649 46.6386 15.887C46.115 16.409 45.4049 16.7023 44.6644 16.7023ZM50.8065 22.8264C50.2543 22.8264 49.7145 22.6631 49.2554 22.3573C48.7963 22.0514 48.4384 21.6166 48.2271 21.108C48.0158 20.5993 47.9606 20.0396 48.0683 19.4996C48.176 18.9596 48.4419 18.4636 48.8323 18.0743C49.2228 17.685 49.7202 17.4199 50.2618 17.3125C50.8034 17.2051 51.3647 17.2602 51.8748 17.4709C52.385 17.6816 52.821 18.0384 53.1278 18.4962C53.4345 18.9539 53.5983 19.4921 53.5983 20.0427C53.5983 20.781 53.3041 21.489 52.7806 22.0111C52.257 22.5331 51.5469 22.8264 50.8065 22.8264Z" fill="#CA252B"/>
</svg>
