<svg width="64" height="49" viewBox="0 0 64 49" fill="none" xmlns="http://www.w3.org/2000/svg">
<path d="M28.5 10.5C28.5 13.2848 27.3938 15.9555 25.4246 17.9246C23.4555 19.8938 20.7848 21 18 21C15.2152 21 12.5445 19.8938 10.5754 17.9246C8.60625 15.9555 7.5 13.2848 7.5 10.5C7.5 7.71523 8.60625 5.04451 10.5754 3.07538C12.5445 1.10625 15.2152 0 18 0C20.7848 0 23.4555 1.10625 25.4246 3.07538C27.3938 5.04451 28.5 7.71523 28.5 10.5ZM56.5 10.5C56.5 11.8789 56.2284 13.2443 55.7007 14.5182C55.1731 15.7921 54.3996 16.9496 53.4246 17.9246C52.4496 18.8996 51.2921 19.6731 50.0182 20.2007C48.7443 20.7284 47.3789 21 46 21C44.6211 21 43.2557 20.7284 41.9818 20.2007C40.7079 19.6731 39.5504 18.8996 38.5754 17.9246C37.6004 16.9496 36.8269 15.7921 36.2993 14.5182C35.7716 13.2443 35.5 11.8789 35.5 10.5C35.5 7.71523 36.6062 5.04451 38.5754 3.07538C40.5445 1.10625 43.2152 0 46 0C48.7848 0 51.4555 1.10625 53.4246 3.07538C55.3938 5.04451 56.5 7.71523 56.5 10.5ZM42.255 49C42.416 47.8555 42.5 46.69 42.5 45.5C42.5081 40.001 40.6581 34.6606 37.25 30.345C39.9103 28.8091 42.928 28.0005 45.9999 28.0004C49.0717 28.0004 52.0895 28.809 54.7498 30.3449C57.4101 31.8808 59.6193 34.0899 61.1553 36.7502C62.6913 39.4104 63.4999 42.4281 63.5 45.5V49H42.255ZM18 28C22.6413 28 27.0925 29.8437 30.3744 33.1256C33.6563 36.4075 35.5 40.8587 35.5 45.5V49H0.5V45.5C0.5 40.8587 2.34374 36.4075 5.62563 33.1256C8.90752 29.8437 13.3587 28 18 28Z" fill="#CA252B"/>
</svg>
