<svg width="39" height="53" viewBox="0 0 39 53" fill="none" xmlns="http://www.w3.org/2000/svg">
<path d="M19.5 33.4737C24.1243 33.4737 27.8293 29.7358 27.8293 25.1053L27.8571 8.36842C27.8571 3.73789 24.1243 0 19.5 0C14.8757 0 11.1429 3.73789 11.1429 8.36842V25.1053C11.1429 29.7358 14.8757 33.4737 19.5 33.4737ZM34.2643 25.1053C34.2643 33.4737 27.1886 39.3316 19.5 39.3316C11.8114 39.3316 4.73571 33.4737 4.73571 25.1053H0C0 34.6174 7.57714 42.4837 16.7143 43.8505V53H22.2857V43.8505C31.4229 42.5116 39 34.6453 39 25.1053H34.2643Z" fill="#CA252B"/>
</svg>
