<svg width="45" height="41" viewBox="0 0 45 41" fill="none" xmlns="http://www.w3.org/2000/svg">
<path d="M38.8333 38.8334C38.8333 39.3749 38.6182 39.8942 38.2353 40.277C37.8524 40.6599 37.3331 40.875 36.7916 40.875H8.20829C7.66681 40.875 7.1475 40.6599 6.76462 40.277C6.38173 39.8942 6.16663 39.3749 6.16663 38.8334V20.4584H0.041626L21.1259 1.29121C21.5018 0.949182 21.9918 0.759644 22.5 0.759644C23.0082 0.759644 23.4981 0.949182 23.874 1.29121L44.9583 20.4584H38.8333V38.8334ZM20.4583 24.5417V36.7917H24.5416V24.5417H20.4583Z" fill="#CA252B"/>
</svg>
