<svg width="49" height="52" viewBox="0 0 49 52" fill="none" xmlns="http://www.w3.org/2000/svg">
<path fill-rule="evenodd" clip-rule="evenodd" d="M43.2895 33.4863L46.7815 20.8286C48.2297 15.5791 48.9541 12.9532 47.7217 11.0696C46.49 9.18367 43.8812 8.92955 38.6643 8.41898L36.1187 8.16981C32.1613 7.78265 30.1824 7.59022 28.2756 7.06419C26.3688 6.53816 24.5711 5.68867 20.975 3.99202L18.664 2.90134C13.9233 0.664836 11.5509 -0.455208 9.52938 0.530689C7.50259 1.51763 6.7788 4.14124 5.32994 9.39308L1.83734 22.053C-1.79439 35.2173 6.20583 44.2959 11.5834 48.6974C13.0408 49.8911 13.7706 50.4883 16.1173 51.1357C18.4662 51.7837 19.3967 51.6446 21.26 51.3669C28.1343 50.343 39.6584 46.6482 43.2895 33.4863ZM13.2025 18.3144C13.6521 17.7986 14.9417 17.283 16.6528 17.7551C18.3638 18.2271 19.2066 19.331 19.3288 20.0021C19.3672 20.2371 19.4524 20.4618 19.5794 20.6627C19.7064 20.8637 19.8726 21.0367 20.0679 21.1715C20.2633 21.3063 20.4838 21.4001 20.7163 21.4472C20.9488 21.4943 21.1885 21.4938 21.421 21.4457C21.8973 21.3364 22.3133 21.0462 22.5817 20.6361C22.8501 20.226 22.95 19.7277 22.8605 19.2461C22.4105 16.7542 20.1847 14.8605 17.6446 14.1597C15.1046 13.459 12.222 13.9459 10.5603 15.8552C10.2364 16.2225 10.0664 16.7012 10.0861 17.1908C10.1059 17.6804 10.3137 18.1428 10.666 18.4811C10.841 18.642 11.0467 18.7657 11.2706 18.8447C11.4946 18.9238 11.7323 18.9565 11.9694 18.941C12.2065 18.9255 12.4381 18.8621 12.6504 18.7545C12.8627 18.6469 13.049 18.4968 13.2025 18.3144ZM32.7728 22.2022C31.0618 21.7302 29.7722 22.2458 29.3232 22.7593C29.1697 22.9414 28.9813 23.0906 28.7693 23.198C28.5572 23.3054 28.3258 23.3688 28.089 23.3843C27.8522 23.3999 27.6148 23.3673 27.391 23.2885C27.1672 23.2098 26.9617 23.0864 26.7867 22.9259C26.4339 22.5879 26.2255 22.1255 26.2053 21.6358C26.1852 21.146 26.3548 20.6671 26.6787 20.2994C28.3427 18.3908 31.2229 17.9032 33.7653 18.6046C36.3077 19.306 38.5305 21.2014 38.9782 23.6926C39.068 24.174 38.9685 24.6721 38.7005 25.0824C38.4326 25.4926 38.017 25.7831 37.5411 25.8928C37.3083 25.9413 37.0684 25.942 36.8356 25.895C36.6027 25.848 36.3819 25.7543 36.1863 25.6194C35.9907 25.4845 35.8243 25.3113 35.6972 25.1101C35.5701 24.9089 35.4848 24.6839 35.4465 24.4486C35.3267 23.7781 34.4838 22.6742 32.7728 22.2022ZM11.6413 31.3304C11.3992 30.9024 11.3298 30.3972 11.4471 29.9184C11.5644 29.4397 11.8597 29.0237 12.2723 28.7559C12.4753 28.6319 12.7009 28.5498 12.9357 28.5142C13.1706 28.4786 13.41 28.4904 13.6401 28.5488C13.8701 28.6071 14.0862 28.7109 14.2756 28.8542C14.4651 28.9974 14.6241 29.1771 14.7434 29.3829L14.9279 29.6305C15.1152 29.8589 15.4328 30.2079 15.9136 30.6119C16.8696 31.4134 18.4961 32.4522 21.0753 33.1638C23.6545 33.8753 25.5836 33.8175 26.8153 33.6195C27.4353 33.5191 27.8869 33.3823 28.1625 33.2816C28.2738 33.2415 28.3831 33.1961 28.49 33.1454L28.4929 33.1437C28.699 33.0302 28.9256 32.9594 29.1593 32.9358C29.3929 32.9121 29.6288 32.9359 29.8529 33.0059C30.0769 33.0758 30.2845 33.1904 30.4633 33.3429C30.642 33.4953 30.7882 33.6824 30.8932 33.893C31.1127 34.3306 31.1562 34.8366 31.0146 35.3063C30.873 35.776 30.5572 36.1736 30.1325 36.4168L30.1289 36.4208L30.1266 36.4202L30.1172 36.4275L30.0943 36.4386L30.0361 36.4699C29.7965 36.5891 29.5505 36.695 29.2993 36.787C28.6495 37.0195 27.9794 37.1897 27.298 37.2954C25.5784 37.5729 23.1485 37.6047 20.0834 36.7591C17.0206 35.9141 14.9484 34.6404 13.6167 33.5211C13.0851 33.0801 12.5965 32.5893 12.1575 32.0554C11.9714 31.8256 11.7996 31.5845 11.643 31.3334L11.6413 31.3304Z" fill="#CA252B"/>
</svg>
