<svg width="73" height="56" viewBox="0 0 73 56" fill="none" xmlns="http://www.w3.org/2000/svg">
<path d="M13.5909 31.6711V44.1156L36.5 56L59.4091 44.1156V31.6711L36.5 43.5556L13.5909 31.6711ZM36.5 0L0.5 18.6667L36.5 37.3333L65.9545 22.0578V43.5556H72.5V18.6667L36.5 0Z" fill="#CA252B"/>
</svg>
